Data Wrangling Part II
…
Q. What is the median salary for each employment type?

lapd |> 
  group_by(employment_type)

# A tibble: 14,824 × 4
# Groups:   employment_type [3]
   job_class_title                  employment_type base_pay base_pay_level    
   <fct>                            <fct>              <dbl> <chr>             
 1 Police Detective II              Full Time        119322. Greater than 100K 
 2 Police Sergeant I                Full Time        113271. Greater than 100K 
 3 Police Lieutenant II             Full Time        148116  Greater than 100K 
 4 Police Service Representative II Full Time         78677. Between 0 and 100K
 5 Police Officer III               Full Time        109374. Greater than 100K 
 6 Police Officer II                Full Time         95002. Between 0 and 100K
 7 Police Officer II                Full Time         95379. Between 0 and 100K
 8 Police Officer II                Full Time         95388. Between 0 and 100K
 9 Equipment Mechanic               Full Time         80496  Between 0 and 100K
10 Detention Officer                Full Time         69640  Between 0 and 100K
# ℹ 14,814 more rows
…
