Logistic Regression
…
# A tibble: 2 × 5
  term        estimate std.error statistic  p.value
  <chr>          <dbl>     <dbl>     <dbl>    <dbl>
1 (Intercept)  17.5      2.24         7.82 5.11e-15
2 gestation    -0.0758   0.00846     -8.96 3.27e-19

\(\hat p = \frac{\exp(b_0 +b_1x)}{1+\exp(b_0 + b_1x)}\)

\(\hat p\) when gestation is 284 = \(\frac{\exp(17.5 -0.0758 \cdot 284)}{1+\exp(17.5 -0.0758 \cdot 284)} = \frac{\exp(-4.0272)}{1+ \exp(-4.0272)} = 0.01751203\)

babies <- babies %>% 
  add_predictions(model_g) 
select(babies, pred) 

# A tibble: 1,223 × 1
     pred
    <dbl>
 1 -4.02 
 2 -3.87 
 3 -3.64 
 4 -3.87 
 5 -4.17 
 6 -0.986
 7 -1.06 
 8 -4.40 
 9 -5.15 
10 -9.10 
# ℹ 1,213 more rows

babies <- babies %>% 
  mutate(pred_p = exp(pred)/(1+exp(pred)))
select(babies, pred, pred_p)

# A tibble: 1,223 × 2
     pred   pred_p
    <dbl>    <dbl>
 1 -4.02  0.0177  
 2 -3.87  0.0205  
 3 -3.64  0.0256  
 4 -3.87  0.0205  
 5 -4.17  0.0152  
 6 -0.986 0.272   
 7 -1.06  0.257   
 8 -4.40  0.0122  
 9 -5.15  0.00574 
10 -9.10  0.000112
# ℹ 1,213 more rows

Cutoff

babies <- babies %>% 
  mutate(pred_y = case_when(pred_p < 0.5 ~ FALSE, 
                           pred_p >= 0.5 ~ TRUE))
select(babies, low_bwt, pred, pred_p, pred_y)

# A tibble: 1,223 × 4
   low_bwt   pred   pred_p pred_y
   <lgl>    <dbl>    <dbl> <lgl> 
 1 FALSE   -4.02  0.0177   FALSE 
 2 FALSE   -3.87  0.0205   FALSE 
 3 FALSE   -3.64  0.0256   FALSE 
 4 FALSE   -3.87  0.0205   FALSE 
 5 FALSE   -4.17  0.0152   FALSE 
 6 FALSE   -0.986 0.272    FALSE 
 7 FALSE   -1.06  0.257    FALSE 
 8 FALSE   -4.40  0.0122   FALSE 
 9 FALSE   -5.15  0.00574  FALSE 
10 FALSE   -9.10  0.000112 FALSE 
# ℹ 1,213 more rows
…
